{
  "model": "RequestDocumentActions",
  "title": "New document request on behalf of student",
  "settings": {
      "i18n": {
          "el": {
              "New document request on behalf of student": "Νέα αίτηση εγγράφου",
              "Select a document for this request": "Ορίστε τον τύπο εγγράφου που θέλετε να αιτηθείτε εκ μέρους του φοιτητή",
              "Additional notes regarding the request": "Ορίστε κάποια επιπλέον σημείωση που χρειάζεται η αίτηση"
          }
      }
  },
  "components": [
    {
      "key": "fieldset",
      "type": "fieldset",
      "input": false,
      "components": [
        {
          "columns": [
            {
              "components": [
                {
                  "label": "Student Number",
                  "key": "student.studentIdentifier",
                  "labelPosition": "top",
                  "type": "number",
                  "disabled": true,
                  "input": true,
                  "validate": {
                    "required": false
                  }
                }
              ],
              "width": 4,
              "offset": 0,
              "push": 0,
              "pull": 0
            },
            {
              "components": [
                {
                  "label": "Given Name",
                  "key": "student.person.givenName",
                  "labelPosition": "top",
                  "dataSrc": "url",
                  "widget": {
                    "type": "input"
                  },
                  "validate": {
                    "required": false
                  },
                  "type": "textfield",
                  "disabled": true,
                  "input": true
                }
              ],
              "width": 4,
              "offset": 0,
              "push": 0,
              "pull": 0
            },
            {
              "components": [
                {
                  "label": "Family Name",
                  "labelPosition": "top",
                  "widget": "choicesjs",
                  "dataSrc": "url",
                  "selectValues": "value",
                  "disabled": true,
                  "key": "student.person.familyName",
                  "type": "textfield",
                  "input": true,
                  "validate": {
                    "required": false
                  }
                }
              ],
              "width": 4,
              "offset": 0,
              "push": 0,
              "pull": 0
            },
            {
              "components": [
                {
                  "label": "Document template",
                  "widget": "choicesjs",
                  "dataSrc": "url",
                  "data": {
                    "url": "DocumentConfigurations?$top=-1&$orderby=name",
                    "headers": []
                  },
                  "selectThreshold": 0.3,
                  "validate": {
                    "required": true
                  },
                  "template": "{{ item.name }}",
                  "key": "object",
                  "valueProperty": "id",
                  "selectValues": "value",
                  "type": "select",
                  "input": true,
                  "hideOnChildrenHidden": false,
                  "disableLimit": false,
                  "lazyLoad": true,
                  "description": "Select a document for this request",
                  "customOptions": {
                    "searchResultLimit": 999
                  },
                  "useExactSearch": true
                }
              ],
              "width": 12,
              "offset": 0,
              "push": 0,
              "pull": 0
            },
            {
              "components": [
                {
                  "label": "Description",
                  "widget": "choicesjs",
                  "selectThreshold": 0.3,
                  "validate": {
                    "unique": false,
                    "multiple": false
                  },
                  "key": "description",
                  "type": "textarea",
                  "input": true,
                  "hideOnChildrenHidden": false,
                  "disableLimit": false,
                  "description": "Additional notes regarding the request"
                }
              ],
              "width": 12,
              "offset": 0,
              "push": 0,
              "pull": 0
            }
          ],
          "customClass": "text-dark",
          "type": "columns",
          "input": false
        }
      ]
    },
    {
      "type": "button",
      "label": "Submit",
      "key": "submit",
      "disableOnInvalid": true,
      "input": true
    }
  ]
}
