{
  "model": "courseClasses",
  "settings": {
    "i18n": {
      "el": {
        "Course Details": "Στοιχεία Mαθήματος",
        "Course ID": "Κωδικός μαθήματος",
        "Course name": "Τίτλος μαθήματος",
        "Department name": "Ονομασία τμήματος",
        "Class Details": "Στοιχεία Tάξης",
        "Class title": "Τίτλος τάξης",
        "Edit the title of this class. It can differ from academic year to academic year.": "Ορίστε τον τίτλο της τάξης. Μπορεί να διαφέρει από ακαδημαϊκό έτος σε ακαδημαϊκό έτος.",
        "Select the academic period this course class is being taught.": "Επιλέξτε την ακαδημαϊκή περίοδο διδασκαλίας της τάξης αυτής.",
        "Academic year": "Ακαδημαϊκό έτος",
        "Select the academic year this course class is taking place.": "Επιλέξτε το ακαδημαϊκό έτος διδασκαλίας της τάξης αυτής.",
        "Study guide": "Οδηγός σπουδών",        
        "Ε-learning": "E-learning",
        "Please fill the field with a valid URL.":"Συμπληρώστε μια έγκυρη ηλεκτρονική διεύθυνση.",
        "Max number of students": "Μέγιστος αριθμός φοιτητών",
        "Set the maximum number of students that can be enrolled in this class. If left blank, no limit will be set.": "Ορίστε το μεγιστό αριθμό φοιτητών που μπορούν να εγγραφούν στην τάξη. Εάν αφεθεί κενό, δε θα οριστεί κάποιο όριο.",
        "Week hours": "Ώρες διδασκαλίας (ανά εβδομάδα)",
        "Set the number of hours this class is being taught per week.": "Ορίστε τον εβδομαδιαίο αριθμό ωρών διδασκαλίας της τάξης.",
        "Total hours": "Ώρες διδασκαλίας (περιόδου)",
        "Set the total number of hours this class will be taught in the selected academic period": "Ορίστε τον αριθμό ωρών διδασκαλίας της τάξης για την επιλεγμένη ακαδημαϊκή περίοδο.",
        "Must register section": "Υποχρεωτική δήλωση τμήματος τάξης",
        "Select if the course class section registration is mandatory during course class registration": "Επιλέξτε αν η εγγραφή σε τμήμα τάξης είναι υποχρεωτική κατά την δήλωση μαθημάτων.",
        "Absence limit": "Όριο απουσιών",
        "Absence limit must be a positive integer greater than or equal to zero.": "Ο μέγιστος αριθμός απουσιών πρέπει να είναι ακέραιος μεγαλύτερος ή ίσος του μηδενός.",
        "Set the upper limit of absences a student can have in this class. If left blank, no limit will be set.": "Ορίστε τον μέγιστο αριθμό απουσιών που μπορεί να έχει ένας φοιτητής σε αυτή την τάξη. Εάν αφεθεί κενό, δε θα οριστεί κάποιο όριο.",
        "This field must contain only numbers. A value is required.": "Αυτό το πεδίο πρέπει να περιέχει μόνο αριθμούς. Απαιτείται μία τιμή.",
        "Label": "Ετικέτα",
        "The field is informative, use it to distinguish classes": "Το πεδίο είναι πληροφοριακό, χρησιμοποιήστε το για διάκριση των τάξεων",
        "exams": "Εξετάσεις",
        "teaching": "Διδασκαλία",
        "Other Languages": "Άλλες Γλώσσες",
        "Language of instruction": "Γλώσσα διδασκαλίας"
      }
    }
  },
  "components": [
    {
      "label": "Tabs",
      "type": "tabs",
      "key": "tabs1",
      "path": "tabs1",
      "input": false,
      "components": [
        {
          "label": "General Information",
          "components": [
            {
              "type": "fieldset",
              "legend": "Course Details",
              "components": [
                {
                  "customClass": "text-dark",
                  "hideLabel": true,
                  "type": "columns",
                  "input": false,
                  "columns": [
                    {
                      "components": [
                        {
                          "label": "Course ID",
                          "labelPosition": "top",
                          "disabled": true,
                          "widget": {
                            "type": "input"
                          },
                          "validate": {
                            "required": false
                          },
                          "key": "course.displayCode",
                          "type": "textfield",
                          "input": true
                        }
                      ],
                      "width": 2
                    },
                    {
                      "components": [
                        {
                          "label": "Course name",
                          "labelPosition": "top",
                          "disabled": true,
                          "widget": {
                            "type": "input"
                          },
                          "validate": {
                            "required": false
                          },
                          "key": "course.name",
                          "type": "textfield",
                          "input": true
                        }
                      ],
                      "width": 5
                    },
                    {
                      "components": [
                        {
                          "label": "Department name",
                          "labelPosition": "top",
                          "disabled": true,
                          "widget": "choicesjs",
                          "dataSrc": "url",
                          "data": {
                            "url": "LocalDepartments/?$select=id,name",
                            "headers": []
                          },
                          "searchFields": ["id"],
                          "template": "<span class='d-block pr-5 text-truncate'>{{ item.name }}</span>",
                          "selectThreshold": 0.3,
                          "selectValues": "value",
                          "key": "course.department",
                          "type": "select",
                          "input": true,
                          "validate": {
                            "required": false
                          }
                        }
                      ],
                      "width": 5
                    }
                  ]
                }
              ]
            },
            {
              "type": "fieldset",
              "legend": "Class Details",
              "components": [
                {
                  "customClass": "text-dark",
                  "hideLabel": true,
                  "type": "columns",
                  "input": false,
                  "columns": [
                    {
                      "components": [
                        {
                          "label": "Class title",
                          "labelPosition": "top",
                          "widget": {
                            "type": "input"
                          },
                          "validate": {
                            "required": true
                          },
                          "key": "title",
                          "type": "textfield",
                          "input": true,
                          "description": "Edit the title of this class. It can differ from academic year to academic year."
                        }
                      ],
                      "width": 5
                    },
                    {
                      "components": [
                        {
                          "label": "Period",
                          "labelPosition": "top",
                          "disabled": true,
                          "widget": "choicesjs",
                          "dataSrc": "url",
                          "data": {
                            "url": "AcademicPeriods/?$select=id,name,alternateName",
                            "headers": []
                          },
                          "searchFields": ["id", "name"],
                          "template": "<span class='d-block pr-5 text-truncate'>{{ item.name }}</span>",
                          "selectValues": "value",
                          "key": "period.id",
                          "valueProperty": "id",
                          "type": "select",
                          "lazyLoad": false,
                          "input": true,
                          "validate": {
                            "required": false
                          }
                        }
                      ],
                      "width": 2
                    },
                    {
                      "components": [
                        {
                          "label": "Academic year",
                          "labelPosition": "top",
                          "disabled": true,
                          "widget": "choicesjs",
                          "dataSrc": "url",
                          "data": {
                            "url": "AcademicYears/?$top=-1&$select=id,name",
                            "headers": []
                          },
                          "searchFields": ["id", "name"],
                          "template": "<span class='d-block pr-5 text-truncate'>{{ item.name }}</span>",
                          "selectValues": "value",
                          "key": "year.id",
                          "valueProperty": "id",
                          "type": "select",
                          "lazyLoad": false,
                          "input": true,
                          "validate": {
                            "required": false
                          }
                        }
                      ],
                      "width": 3
                    }
                  ]
                }
              ]
            },
            {
              "type": "fieldset",
              "legend": "Teaching Details",
              "components": [
                {
                  "customClass": "text-dark",
                  "hideLabel": true,
                  "type": "columns",
                  "input": false,
                  "columns": [
                    {
                      "components": [
                        {
                          "label": "Max number of students",
                          "labelPosition": "top",
                          "widget": {
                            "type": "input"
                          },
                          "validate": {
                            "required": false,
                            "pattern": "^[0-9]\\d*$",
                            "customMessage": "This field must contain only numbers. A value is required."
                          },
                          "calculateValue": "value = value || null",
                          "key": "maxNumberOfStudents",
                          "type": "textfield",
                          "input": true,
                          "description": "Set the maximum number of students that can be enrolled in this class. If left blank, no limit will be set."
                        }
                      ],
                      "width": 4
                    },
                    {
                      "components": [
                        {
                          "label": "Week hours",
                          "labelPosition": "top",
                          "widget": {
                            "type": "input"
                          },
                          "validate": {
                            "required": false,
                            "integer": true,
                            "min": 0
                          },
                          "key": "weekHours",
                          "type": "number",
                          "input": true,
                          "description": "Set the number of hours this class is being taught per week."
                        }
                      ],
                      "width": 4
                    },
                    {
                      "components": [
                        {
                          "label": "Total hours",
                          "labelPosition": "top",
                          "widget": {
                            "type": "input"
                          },
                          "validate": {
                            "required": false,
                            "integer": true,
                            "min": 0
                          },
                          "key": "totalHours",
                          "type": "number",
                          "input": true,
                          "description": "Set the total number of hours this class will be taught in the selected academic period"
                        }
                      ],
                      "width": 4
                    },
                    {
                      "components": [
                        {
                          "label": "Language of instruction",
                          "labelPosition": "top",
                          "data": {
                            "values": [
                              {
                                "label": "Ελληνικά",
                                "value": "el"
                              },
                              {
                                "label": "English",
                                "value": "en"
                              },
                              {
                                "label": "Deutsch",
                                "value": "de"
                              },
                              {
                                "label": "Français",
                                "value": "fr"
                              },
                              {
                                "label": "Italiano",
                                "value": "it"
                              },
                              {
                                "label": "Español",
                                "value": "es"
                              },
                              {
                                "label": "Русский",
                                "value": "ru"
                              }
                            ]
                          },
                          "widget": "choicesjs",
                          "validate": {
                            "required": false
                          },
                          "key": "statistic.inLanguage",
                          "type": "select",
                          "searchEnabled": false,
                          "input": true,
                          "description": "Set a Language that is going to be used by the element"
                        }
                      ],
                      "width": 4
                    }
                  ]
                }
              ]
            },
            {
              "type": "fieldset",
              "components": [
                {
                  "customClass": "text-dark",
                  "hideLabel": true,
                  "type": "columns",
                  "input": false,
                  "columns": [
                    {
                      "components": [
                        {
                          "label": "Must register section",
                          "labelPosition": "top",
                          "widget": "choicesjs",
                          "searchEnabled": false,
                          "data": {
                            "values": [
                              {
                                "label": "No",
                                "value": "0"
                              },
                              {
                                "label": "Yes",
                                "value": "1"
                              }
                            ]
                          },
                          "validate": {
                            "required": true
                          },
                          "calculateValue": "value = value ? 1 : 0",
                          "defaultValue": "0",
                          "selectThreshold": 0.3,
                          "key": "mustRegisterSection",
                          "type": "select",
                          "input": true,
                          "description": "Select if the course class section registration is mandatory during course class registration"
                        }
                      ],
                      "width": 4
                    },
                    {
                      "components": [
                        {
                          "label": "Absence limit",
                          "labelPosition": "top",
                          "widget": {
                            "type": "input"
                          },
                          "validate": {
                            "pattern": "^(0|[1-9]\\d*)$",
                            "customMessage": "Absence limit must be a positive integer greater than or equal to zero."
                          },
                          "key": "absenceLimit",
                          "type": "textfield",
                          "input": true,
                          "description": "Set the upper limit of absences a student can have in this class. If left blank, no limit will be set."
                        }
                      ],
                      "width": 4
                    },
                    {
                      "components": [
                        {
                          "label": "Label",
                          "labelPosition": "top",
                          "widget": "choicesjs",
                          "dataSrc": "url",
                          "data": {
                            "url": "RegistrationTypes/?$select=id,name,alternateName",
                            "headers": []
                          },
                          "template": "<span class='d-block pr-5 text-truncate'>{{ item.alternateName }}</span>",
                          "selectValues": "value",
                          "key": "statistic.registrationType",
                          "valueProperty": "id",
                          "type": "select",
                          "lazyLoad": false,
                          "input": true,
                          "validate": {
                            "required": false
                          },
                          "description": "The field is informative, use it to distinguish classes"
                        }
                      ],
                      "width": 4
                    },
                    {
                      "components": [
                        {
                          "label": "Study guide",
                          "labelPosition": "top",
                          "widget": {
                            "type": "input"
                          },
                          "validate": {
														"pattern": "(([\\w]+:)?//)?(([\\d\\w]|%[a-fA-f\\d]{2,2})+(:([\\d\\w]|%[a-fA-f\\d]{2,2})+)?@)?([\\d\\w][-\\d\\w]{0,253}[\\d\\w]\\.)+[\\w]{2,63}(:[\\d]+)?(/([-+_~.\\d\\w]|%[a-fA-f\\d]{2,2})*)*(\\?(&?([-+_~.\\d\\w]|%[a-fA-f\\d]{2,2})=?)*)?(#([-+_~.\\d\\w]|%[a-fA-f\\d]{2,2})*)?",
														"customMessage": "Please fill the field with a valid URL."
													},
                          "key": "statistic.studyGuideUrl",
                          "type": "textfield",
                          "input": true
                        }
                      ],
                      "width": 5
                    },
                    {
                      "components": [
                        {
                          "label": "E-learning",
                          "labelPosition": "top",
                          "widget": {
                            "type": "input"
                          },
                          "validate": {
														"pattern": "(([\\w]+:)?//)?(([\\d\\w]|%[a-fA-f\\d]{2,2})+(:([\\d\\w]|%[a-fA-f\\d]{2,2})+)?@)?([\\d\\w][-\\d\\w]{0,253}[\\d\\w]\\.)+[\\w]{2,63}(:[\\d]+)?(/([-+_~.\\d\\w]|%[a-fA-f\\d]{2,2})*)*(\\?(&?([-+_~.\\d\\w]|%[a-fA-f\\d]{2,2})=?)*)?(#([-+_~.\\d\\w]|%[a-fA-f\\d]{2,2})*)?",
														"customMessage": "Please fill the field with a valid URL."
													},
                          "key": "statistic.eLearningUrl",
                          "type": "textfield",
                          "input": true
                        }
                      ],
                      "width": 5
                    }
                  ]
                }
              ]
            }
          ]
        },
        {
          "legend": "Other languages",
          "key": "fieldSet",
          "type": "fieldset",
          "input": false,
          "label": "Other Languages",
          "components": [
            {
              "label": "",
              "hideLabel": true,
              "key": "locales",
              "type": "datagrid",
              "disableAddingRemovingRows": true,
              "input": true,
              "customClass": "fix-panel-for-locales",
              "components": [
                {
                  "collapsible": false,
                  "hideLabel": true,
                  "key": "panel",
                  "type": "panel",
                  "title": "",
                  "hideTitle": true,
                  "input": false,
                  "tableView": false,
                  "components": [
                    {
                      "label": "Language",
                      "tableView": true,
                      "key": "inLanguage",
                      "disabled": "true",
                      "type": "textfield",
                      "input": true
                    },
                    {
                      "label": "Class title",
                      "tableView": true,
                      "key": "title",
                      "type": "textfield",
                      "input": true
                    }
                  ]
                }
              ]
            }
          ]
        }
      ]
    },
    {
      "type": "button",
      "label": "Submit",
      "key": "submit",
      "disableOnInvalid": true,
      "input": true
    }
  ]
}
