{
  "model": "courseClasses",
  "settings": {
    "i18n": {
      "el": {
        "Label": "Ετικέτα",
        "Select the new label.": "Επιλέξτε τη νέα ετικέτα"
      }
    }
  },
  "components": [
    {
      "type": "fieldset",
      "key": "fieldSet",
      "input": false,
      "components": [
        {
          "columns": [
            {
              "components": [
                {
                  "label": "Label",
                  "labelPosition": "top",
                  "widget": "choicesjs",
                  "dataSrc": "url",
                  "data": {
                    "url": "/RegistrationTypes?$select=id, name",
                    "headers": []
                  },
                  "validate": {
                    "required": true
                  },
                  "lazyLoad": false,
                  "dataType": "object",
                  "dataPath": "id",
                  "template": "<span class='d-block pr-5 text-truncate'>{{ item.name }}</span>",
                  "selectThreshold": 0.3,
                  "key": "registrationType",
                  "type": "select",
                  "selectValues": "value",
                  "input": true,
                  "description": "Select the new label."
                }
              ],
              "width": 8
            }
          ],
          "customClass": "text-dark",
          "hideLabel": true,
          "type": "columns",
          "input": false
        }
      ]
    }
  ]
}
