{
    "components": [
      {
        "label": "Columns",
        "columns": [
          {
            "components": [
              {
                "label": "Students.studentIdentifier",
                "spellcheck": true,
                "tableView": true,
                "validate": {
                  "unique": false,
                  "multiple": false
                },
                "key": "studentIdentifier",
                "type": "textfield",
                "input": true,
                "hideOnChildrenHidden": false
              }
            ],
            "width": 3,
            "offset": 0,
            "push": 0,
            "pull": 0
          },
          {
            "components": [
              {
                "label": "Students.fullName",
                "spellcheck": true,
                "tableView": true,
                "validate": {
                  "unique": false,
                  "multiple": false
                },
                "key": "studentName",
                "type": "textfield",
                "input": true,
                "hideOnChildrenHidden": false
              }
            ],
            "width": 3,
            "offset": 0,
            "push": 0,
            "pull": 0
          }
        ],
        "tableView": false,
        "key": "department",
        "type": "columns",
        "input": false,
        "path": "columns"
      },
      {
        "label": "Columns",
        "columns": [
          {
            "components": [
              {
                "label": "Students.Status",
              "widget": "choicesjs",
              "dataSrc": "url",
              "data": {
                "url": "StudentStatuses?$orderby=name",
                "headers": []
              },
              "selectThreshold": 0.3,
              "validate": {
                "unique": false,
                "multiple": false
              },
              "template": "<span class='d-block pr-5 text-truncate'>{{ item.name }}</span>",
              "key": "studentStatus",
              "valueProperty": "alternateName",
              "selectValues": "value",
              "type": "select",
              "input": true,
              "hideOnChildrenHidden": false,
              "disableLimit": false,
              "lazyLoad": false
              }
            ],
            "width": 3,
            "offset": 0,
            "push": 0,
            "pull": 0
          },
          {
            "components": [
              {
                "label": "Students.inscriptionYear",
              "widget": "choicesjs",
              "dataSrc": "url",
              "data": {
                "url": "AcademicYears?$orderby=id desc",
                "headers": []
              },
              "selectThreshold": 0.3,
              "validate": {
                "unique": false,
                "multiple": false
              },
              "template": "<span class='d-block pr-5 text-truncate'>{{ item.name }}</span>",
              "key": "inscriptionYear",
              "valueProperty": "alternateName",
              "selectValues": "value",
              "type": "select",
              "input": true,
              "hideOnChildrenHidden": false,
              "disableLimit": false,
              "lazyLoad": false
              }
            ],
            "width": 3,
            "offset": 0,
            "push": 0,
            "pull": 0
          },
          {
            "components": [
              {
                "label": "Departments.StudyProgramReplacementAction.Rule",
                "widget": "choicesjs",
                "dataSrc": "url",
                "customConditional": "show = !!form.department;",
                "data": {
                  "url": "StudyProgramReplacementActions?$filter=studyProgramReplacementRule/studyProgram/department eq {{form.department}}&$select=studyProgramReplacementRule/id as id,studyProgramReplacementRule/name as name&$groupby=studyProgramReplacementRule/id,studyProgramReplacementRule/name",
                  "headers": []
                },
                "selectThreshold": 0.3,
                "validate": {
                  "unique": false,
                  "multiple": false
                },
                "template": "<span>{{ item.name }}</span>",
                "key": "ruleId",
                "valueProperty": "id",
                "selectValues": "value",
                "type": "select",
                "input": true,
                "hideOnChildrenHidden": false,
                "disableLimit": false,
                "lazyLoad": false
              }
            ],
            "width": 3,
            "offset": 0,
            "push": 0,
            "pull": 0
          },
          {
            "components": [
              {
                "label": "Rules.CheckDate",
                "widget": "choicesjs",
                "dataSrc": "url",
                "customConditional": "show = !!form.department;",
                "data": {
                  "url": "StudyProgramReplacementActions?$filter=studyProgramReplacementRule/studyProgram/department eq {{form.department}}&$orderby=dateCreated desc",
                  "headers": []
                },
                "selectThreshold": 0.3,
                "validate": {
                  "unique": false,
                  "multiple": false
                },
                "template": "<span class='d-block pr-5 text-truncate'>{{moment(item.dateCreated).locale(instance.i18next.language).format('LLL')}}</span>",
                "key": "actionId",
                "valueProperty": "id",
                "selectValues": "value",
                "type": "select",
                "input": true,
                "hideOnChildrenHidden": false,
                "disableLimit": false,
                "lazyLoad": false
              }
            ],
            "width": 3,
            "offset": 0,
            "push": 0,
            "pull": 0
          }
        ],
        "tableView": false,
        "key": "columns1",
        "type": "columns",
        "input": false,
        "path": "columns1"
      }
    ]
  }
