{
    "model": "CandidateSources",
    "settings": {
      "i18n": {
        "el": {
            "Candidate Source": "Πηγή δεδομένων υποψηφίων",
            "Select the candidate source": "Επιλέξτε την πηγή από την οποία θα εξαχθούν τα δεδομένα των υποψήφιων φοιτητών"
        }
      }
    },
    "components": [
      {
        "type": "fieldset",
        "components": [
          {
            "columns": [
              {
                "components": [
                  {
                    "label": "Candidate Source",
                    "labelPosition": "top",
                    "widget": "choicesjs",
                    "dataSrc": "url",
                    "data": {
                      "url": "CandidateSources?$filter=externalSource eq 1 and sourceURL ne null&$top=-1",
                      "headers": []
                    },
                    "validate": {
                      "required": true
                    },
                    "idPath": "id",
                    "lazyLoad": true,
                    "dataType": "object",
                    "template": "{{item.name}} ({{item.sourceURL}})",
                    "selectThreshold": 0.3,
                    "key": "candidateSource",
                    "type": "select",
                    "selectValues": "value",
                    "input": true,
                    "customClass": "formio-component-select-wrap",
                    "description": "Select the candidate source"
                  }
                ],
                "width": 8
              }
            ],
            "customClass": "text-dark",
            "hideLabel": true,
            "type": "columns",
            "input": false
          }
        ]
      }
    ],
    "width": 3
  }
  