{
  "components": [
    {
      "label": "Columns",
      "columns": [
        {
          "components": [
            {
              "label": "Theses.PartΟfΤheΤitle",
              "spellcheck": true,
              "tableView": true,
              "validate": {
                "unique": false,
                "multiple": false
              },
              "key": "thesisName",
              "type": "textfield",
              "input": true,
              "hideOnChildrenHidden": false
            }
          ],
          "width": 6,
          "offset": 0,
          "push": 0,
          "pull": 0
        },
        {
          "components": [
            {
              "label": "Theses.FullΝame",
              "spellcheck": true,
              "tableView": true,
              "validate": {
                "unique": false,
                "multiple": false
              },
              "key": "studentName",
              "type": "textfield",
              "input": true,
              "hideOnChildrenHidden": false
            }
          ],
          "width": 6,
          "offset": 0,
          "push": 0,
          "pull": 0
        }
      ],
      "tableView": false,
      "key": "department",
      "type": "columns",
      "input": false,
      "path": "columns"
    },
    {
      "label": "Columns",
      "columns": [
        {
          "components": [
            {
              "label": "Theses.StudentIdentifier",
              "spellcheck": true,
              "tableView": true,
              "validate": {
                "unique": false,
                "multiple": false
              },
              "key": "studentIdentifier",
              "type": "textfield",
              "input": true,
              "hideOnChildrenHidden": false
            }
          ],
          "width": 3,
          "offset": 0,
          "push": 0,
          "pull": 0
        },
        {
          "components": [
            {
              "label": "Theses.StudentStatus",
              "widget": "choicesjs",
              "dataSrc": "url",
              "data": {
                "url": "StudentStatuses?$orderby=id desc",
                "headers": []
              },
              "selectThreshold": 0.3,
              "validate": {
                "unique": false,
                "multiple": false
              },
              "template": "<span class='d-block pr-5 text-truncate'>{{ item.name }}</span>",
              "key": "studentStatus",
              "valueProperty": "alternateName",
              "selectValues": "value",
              "type": "select",
              "input": true,
              "hideOnChildrenHidden": false,
              "disableLimit": false,
              "lazyLoad": false
            }
          ],
          "width": 3,
          "offset": 0,
          "push": 0,
          "pull": 0
        },
        {
          "components": [
            {
              "label": "Theses.StartYear",
              "widget": "choicesjs",
              "dataSrc": "url",
              "data": {
                "url": "AcademicYears?$orderby=id desc",
                "headers": []
              },
              "selectThreshold": 0.3,
              "validate": {
                "unique": false,
                "multiple": false
              },
              "template": "<span class='d-block pr-5 text-truncate'>{{ item.name }}</span>",
              "key": "startYearId",
              "valueProperty": "id",
              "selectValues": "value",
              "type": "select",
              "input": true,
              "hideOnChildrenHidden": false,
              "disableLimit": false,
              "lazyLoad": false
            }
          ],
          "width": 3,
          "offset": 0,
          "push": 0,
          "pull": 0
        },
        {
          "components": [
            {
              "label": "Students.studyProgram",
              "widget": "choicesjs",
              "dataSrc": "url",
              "data": {
                "url": "StudyPrograms?$top=-1&$skip=0&$filter=department eq '{{form.department}}'",
                "headers": []
              },
              "selectThreshold": 0.3,
              "validate": {
                "unique": false,
                "multiple": false
              },
              "template": "{{ item.name }}",
              "key": "studyProgram",
              "selectValues": "value",
              "valueProperty": "id",
              "type": "select",
              "input": true,
              "disabled": false,
              "lazyLoad": false,
              "searchEnabled": true
            }
          ],
          "width": 4,
          "offset": 0,
          "push": 0,
          "pull": 0
        },
        {
          "components": [
            {
              "label": "Theses.StartPeriod",
              "widget": "choicesjs",
              "dataSrc": "url",
              "data": {
                "url": "AcademicPeriods?$orderby=id",
                "headers": []
              },
              "selectThreshold": 0.3,
              "validate": {},
              "template": "<span class='d-block pr-5 text-truncate'>{{ item.name }}</span>",
              "key": "startPeriod",
              "valueProperty": "alternateName",
              "selectValues": "value",
              "type": "select",
              "input": true,
              "hideOnChildrenHidden": false,
              "disableLimit": false,
              "lazyLoad": false
            }
          ],
          "width": 3,
          "offset": 0,
          "push": 0,
          "pull": 0
        }
      ],
      "tableView": false,
      "key": "columns1",
      "type": "columns",
      "input": false,
      "path": "columns1"
    },
    {
      "label": "Columns",
      "columns": [
        {
          "components": [
            {
              "label": "Theses.InstructorFullName",
              "spellcheck": true,
              "tableView": true,
              "validate": {
                "unique": false,
                "multiple": false
              },
              "key": "instructorName",
              "type": "textfield",
              "input": true,
              "hideOnChildrenHidden": false
            }
          ],
          "width": 3,
          "offset": 0,
          "push": 0,
          "pull": 0
        },
        {
          "components": [
              {
                "label": "Thesis type",
                "labelPosition": "top",
                "type": "select",
                "dataSrc": "url",
                "data": {
                  "url": "ThesisTypes?$top={{limit}}&$skip={{skip}}&$select=id,name&$filter=indexof(name, '{{encodeURIComponent(search||'')}}') ge 0",
                  "headers": []
                },
                "limit": 15,
                "dataType": "object",
                "idPath": "id",
                "searchFields": ["value.id", "value.name"],
                "searchField": "search",
                "searchThreshold": "0.3",
                "template": "<span class='d-block pr-5 text-truncate'>{{ item.name }}</span>",
                "selectValues": "value",
                "key": "thesisType",
                "lazyLoad": true,
                "widget": "choicesjs",
                "input": true,
                "searchEnabled": true
              }
          ],
          "width": 4
        },
        {
          "components": [
            {
              "label": "Theses.ThesisSubject",
              "widget": "choicesjs",
              "dataSrc": "url",
              "defaultValue": "",
              "labelPosition": "top",
              "customConditional": "show = !!(form.department)",
              "data": {
                "values": [],
                "url":  "ThesisSubjects?$top=-1&$filter=department eq '{{form.department}}'",
                "headers": []
              },
              "lazyLoad": false,
              "searchEnabled": false,
              "valueProperty": "id",
              "template": "{{ item.name }}",
              "key": "subject",
              "type": "select",
              "selectValues": "value",
              "input": true
            }
          ],
          "width": 4
        },
        {
          "components": [
            {
              "label": "Theses.DeliveredDateBefore",
              "labelPosition": "top",
              "format": "dd/MM/yyyy",
              "enableTime": false,
              "widget": {
                "type": "calendar",
                "format": "dd/MM/yyyy"
              },
              "key": "deliveredDateBefore",
              "type": "datetime",
              "input": true,
              "hideOnChildrenHidden": false
            }
          ],
          "width": 4
        },
        {
          "components": [
            {
              "label": "Theses.DeliveredDateAfter",
              "labelPosition": "top",
              "format": "dd/MM/yyyy",
              "enableTime": false,
              "widget": {
                "type": "calendar",
                "format": "dd/MM/yyyy"
              },
              "key": "deliveredDateAfter",
              "type": "datetime",
              "input": true,
              "hideOnChildrenHidden": false
            }
          ],
          "width": 4
        }
      ],
      "tableView": false,
      "key": "columns2",
      "type": "columns",
      "input": false,
      "path": "columns2"
    }
  ]
}
