{
  "title": "Class Sections",
  "model": "courseClassSections",
  "searchExpression":"",
  "columns": [
    {
      "name": "id",
      "property": "rulesID",
      "formatter": "ButtonFormatter",
      "formatString":"(modal:rules)",
      "className": "text-center",
      "formatOptions": {
        "buttonContent": "<i class=\"fas fa-blender text-indigo\"></i>",
        "buttonClass": "btn btn-default",
        "commands": [
          { "outlets":
            {
              "modal":["item", "${id}", "rules"]
            }
          }
        ],
        "navigationExtras": {
          "replaceUrl": false,
          "skipLocationChange": true
        }
      }
    },
    {
      "name":"id",
      "hidden": "true"
    },
    {
      "name":"name",
      "property": "sectionName",
      "title":"Classes.SectionName"
    },
    {
      "name":"maxNumberOfStudents",
      "property": "maxNumberOfStudents",
      "title":"Classes.MaxNumberOfStudents"
    },
    {
      "name":"instructor1",
      "property": "instructor1",
      "hidden": true
    },
    {
      "name":"instructor2",
      "property": "instructor2",
      "hidden": true
    },
    {
      "name":"instructor3",
      "property": "instructor3",
      "hidden": true
    },
    {
      "name":"instructor1/givenName",
      "property": "givenName1",
      "hidden": true
    },
    {
      "name":"instructor2/givenName",
      "property": "givenName2",
      "hidden": true
    },
    {
      "name":"instructor3/givenName",
      "property": "givenName3",
      "hidden": true
    },
    {
      "name":"instructor1/familyName",
      "property": "familyName1",
      "title":"Classes.InstructorSingular",
      "formatter": "TemplateFormatter",
      "formatString": "${familyName1} ${givenName1}"
    },
    {
      "name":"instructor2/familyName",
      "property": "familyName2",
      "title":"Classes.InstructorSingular2",
      "formatter": "TemplateFormatter",
      "formatString": "${familyName2} ${givenName2}"
    },
    {
      "name":"instructor3/familyName",
      "property": "familyName3",
      "title":"Classes.InstructorSingular3",
      "formatter": "TemplateFormatter",
      "formatString": "${familyName3} ${givenName3}"
    },
    {
      "name": "active",
      "property": "active",
      "title":"Classes.Active",
      "formatters": [
        {
          "formatter": "TrueFalseFormatter"
        },
        {
          "formatter": "NgClassFormatter",
          "formatOptions": {
            "ngClass": {
              "text-success": "${!!active}",
              "text-danger": "${!active}"
            }
          }
        }
      ]
    },
    {
      "name": "courseClass",
      "property": "courseClass",
      "formatter": "ButtonFormatter",
      "className": "text-center",
      "formatOptions": {
        "buttonContent": "<i class=\"far fa-edit text-indigo\"></i>",
        "buttonClass": "btn btn-default",
        "commands": ["/classes", "${courseClass}", "dashboard", "sections",
          {
            "outlets":
              {
                "modal": ["${id}", "edit"]
              }
          }
        ]
      }
    }
  ],
  "defaults":{
  },
  "criteria": [
  ]
}
