{
  "columns": [
    {
      "name": "name",
      "title": "Settings.Attributes.name",
      "hidden": false
    },
    {
      "name": "description",
      "title": "Settings.Attributes.description",
      "hidden": false
    },
    {
      "name": "schemaURL",
      "title": "Settings.Attributes.SchemaURL",
      "property": "schemaURL",
      "hidden": false
    },
    {
      "name": "externalSource",
      "title": "Settings.Attributes.ExternalSource",
      "hidden": false,
      "formatter": "TrueFalseFormatter"
    },
    {
      "name": "sourceURL",
      "title": "Settings.Attributes.SourceURL",
      "hidden": false
    },
    {
      "name": "keychainIdentifier",
      "title": "Settings.Attributes.KeychainIdentifier",
      "hidden": false
    },
    {
      "name": "id",
      "formatter": "ButtonFormatter",
      "formatString": "(modal:edit)",
      "className": "text-center",
      "formatOptions": {
        "buttonContent": "<i class=\"far fa-edit text-indigo\"></i>",
        "buttonClass": "btn btn-default"
      }
    },
    {
      "name": "id",
      "virtual": true,
      "formatter": "ButtonFormatter",
      "formatString": "#settings/lists/CandidateSources/(modal:${id}/attachSchema)",
      "className": "text-center",
      "formatOptions": {
        "buttonContent": "<i class=\"fas fa-upload text-indigo\"></i>",
        "buttonClass": "btn btn-default"
      }
    },
    {
      "name": "id",
      "virtual": true,
      "formatters": [
        {
          "formatter": "ButtonFormatter",
          "formatOptions": {
              "buttonContent": "<i class=\"fas fa-download text-indigo\"></i>",
              "buttonClass": "btn btn-default",
              "commands": [ "." ],
              "navigationExtras": {
                "replaceUrl": false,
                "queryParams": {
                  "download": "${schemaURL}",
                  "name": "${(attachments.find(attachment => attachment.url === schemaURL))?.name}",
                  "type": "${(attachments.find(attachment => attachment.url === schemaURL))?.contentType || 'application/json'}"
                }
              }
          }
        },
        {
          "formatter": "NgClassFormatter",
          "formatOptions": {
            "ngClass": {
              "text-center": "${schemaURL != null}",
              "d-none": "${schemaURL == null}"
            }
          }
        }
      ]
    }
  ],
  "defaults": {
    "expand": "attachments"
  }
}
