{
  "title": "StudyProgramReplacementRules",
  "model": "StudyProgramReplacementRules",
  "selectable": true,
  "multipleSelect": true,
  "searchExpression": "indexof(name, '${text}') ge 0)",
  "columns": [
    {
      "name": "id",
      "formatter": "ButtonFormatter",
      "property": "id",
      "className": "text-center",
      "formatOptions": {
        "buttonContent": "<i class=\"fas fa-edit text-indigo\"></i>",
        "buttonClass": "btn btn-default",
        "commands": [
          {
            "outlets": {
              "modal": [
                "${id}",
                "edit"
              ]
            }
          }
        ],
        "navigationExtras": {
          "replaceUrl": true,
          "skipLocationChange": true
        }
      }
    },
    {
      "name": "name",
      "title": "StudyPrograms.Name"
    },
    {
      "name": "description",
      "title": "Students.Description"
    },
    {
      "name": "studyProgram",
      "hidden": true
    },
    {
      "name": "courses",
      "property": "courses",
      "virtual": true,
      "sortable": false,
      "title": "Courses.Title",
      "className": "text-center",
      "formatters": [
        {
          "formatter": "TemplateFormatter",
          "formatString": "${courses  && courses.length?'<span class=\"text-center\">' + courses[0].totalCourses + '</span>':'-'}"
        }
      ]
    },
    {
      "name": "id",
      "property": "groupID",
      "formatter": "ButtonFormatter",
      "formatString": "#/study-programs/${studyProgram}/preview/replacementRules/${id}/courses",
      "className": "text-center",
      "formatOptions": {
        "buttonContent": "<i class=\"far fa-eye text-indigo\"></i>",
        "buttonClass": "btn btn-default"
      }
    }
  ],
  "defaults": {
    "expand": "courses($select=count(id) as totalCourses,studyProgramReplacementRule;$groupby=studyProgramReplacementRule)"
  },
  "criteria": [
  ]
}
