{
  "components": [
    {
      "label": "Columns",
      "columns": [
        {
          "components": [
            {
              "label": "Courses.name",
              "spellcheck": true,
              "tableView": true,
              "validate": {
                "unique": false,
                "multiple": false
              },
              "key": "name",
              "type": "textfield",
              "input": true,
              "hideOnChildrenHidden": false
            }
          ],
          "width": 6,
          "offset": 0,
          "push": 0,
          "pull": 0
        },
        {
          "components": [
            {
              "label": "Courses.DisplayCode",
              "spellcheck": true,
              "tableView": true,
              "validate": {
                "unique": false,
                "multiple": false
              },
              "key": "displayCode",
              "type": "textfield",
              "input": true,
              "hideOnChildrenHidden": false
            }
          ],
          "width": 3,
          "offset": 0,
          "push": 0,
          "pull": 0
        },
        {
          "components": [
            {
              "label": "Courses.courseStructureType",
              "spellcheck": true,
              "tableView": true,
              "dataSrc": "url",
              "data": {
                "values": [],
                "url": "/CourseStructureTypes?$top=-1&$skip=0&$select=id,name",
                "headers": []
              },
              "validate": {
                "unique": false,
                "multiple": false
              },
              "template": "{{ item.name }}",
              "valueProperty": "id",
              "selectValues": "value",
              "key": "courseStructureType",
              "type": "select",
              "input": true,
              "hideOnChildrenHidden": false,
              "searchEnabled": false
            }
          ],
          "width": 3,
          "offset": 0,
          "push": 0,
          "pull": 0
        },
        {
          "components": [
            {
              "label": "StudyPrograms.Active.Singular",
              "widget": "choicesjs",
              "data": {
                "values": [
                  {
                    "label": "Yes",
                    "value": "1"
                  },
                  {
                    "label": "No",
                    "value": "0"
                  }
                ]
              },
              "dataType": "string",
              "validate": {
                "unique": false,
                "multiple": false
              },
              "key": "isActive",
              "valueProperty": "value",
              "selectValues": "label",
              "type": "select",
              "input": true,
              "hideOnChildrenHidden": false,
              "disableLimit": false,
              "lazyLoad": false,
              "searchEnabled": false
            }
          ],
          "width": 3,
          "offset": 0,
          "push": 0,
          "pull": 0
        }
      ],
      "tableView": false,
      "key": "columns1",
      "type": "columns",
      "input": false,
      "path": "columns1"
    }
  ]
}
