{
    "model": "ConsentFields",
    "selectable": true,
    "searchExpression": "(indexof(name, '${text}') ge 0 or indexof(group/name, '${text}') ge 0 or indexof(description, '${text}') ge 0 or indexof(description, '${text}') ge 0)",
    "columns": [
        {
            "name": "id",
            "property": "id",
            "virtual": true,
            "hidden": true,
            "title": "Settings.Attributes.id"
        },
        {
            "name": "name",
            "title": "Settings.Attributes.name",
            "hidden": false
        },
        {
            "name": "alternateName",
            "title": "Settings.Attributes.alternateName",
            "hidden": false,
            "formatter": "TemplateFormatter",
            "formatString": "<span class=\"badge p-2 badge-gray-200\">${alternateName}</span>"
        },
        {
            "name": "expiration",
            "title": "Settings.Attributes.expiration",
            "hidden": false
        },
        {
            "name": "description",
            "title": "Settings.Attributes.description",
            "hidden": true
        },
        {
            "name": "group/name",
            "property": "group",
            "title": "Settings.Attributes.group",
            "hidden": false
        },
        {
            "name": "archived",
            "title": "Settings.Attributes.archived",
            "hidden": false,
            "formatter": "TrueFalseFormatter"
        },
        {
            "name": "dateCreated",
            "title": "Settings.Attributes.dateCreated",
            "hidden": false,
            "formatter": "DateTimeFormatter",
            "formatString": "medium"
        },
        {
            "name": "dateModified",
            "title": "Settings.Attributes.dateModified",
            "hidden": false,
            "formatter": "DateTimeFormatter",
            "formatString": "medium"
        },
        {
            "name": "id",
            "formatter": "ButtonFormatter",
            "className": "text-center",
            "formatOptions": {
                "buttonContent": "<i class=\"far fa-edit text-indigo\"></i>",
                "buttonClass": "btn btn-default",
                "commands": [
                    {
                        "outlets": {
                            "modal": [
                                "fields",
                                "${id}",
                                "edit"
                            ]
                        }
                    }
                ]
            }
        }
    ],
    "criteria": [
        {
            "name": "name",
            "filter": "(indexof(name, '${value}') ge 0)",
            "type": "text"
        },
        {
            "name": "alternateName",
            "filter": "(indexof(alternateName, '${value}') ge 0)",
            "type": "text"
        },
        {
            "name": "description",
            "filter": "(indexof(description, '${value}') ge 0)",
            "type": "text"
        },
        {
            "name": "group",
            "filter": "(group eq '${value}')",
            "type": "text"
        },
        {
            "name": "archived",
            "filter": "(archived eq ${value})",
            "type": "text"
        }
    ]
}
