{
  "components": [
    {
      "label": "Columns",
      "columns": [
        {
          "components": [
            {
              "label": "Settings.Attributes.name",
              "spellcheck": true,
              "tableView": true,
              "key": "name",
              "type": "textfield",
              "input": true
            }
          ],
          "width": 4
        },
        {
          "components": [
            {
              "label": "Settings.Attributes.alternateName",
              "spellcheck": true,
              "tableView": true,
              "key": "alternateName",
              "type": "textfield",
              "input": true
            }
          ],
          "width": 4
        },
        {
          "components": [
            {
              "label": "Settings.Attributes.description",
              "spellcheck": true,
              "tableView": true,
              "key": "description",
              "type": "textfield",
              "input": true
            }
          ],
          "width": 4
        },
        {
          "components": [
            {
              "label": "Settings.Attributes.group",
              "labelPosition": "top",
              "dataSrc": "url",
              "data": {
                "url": "ConsentFieldGroups?$orderby=name asc&$select=id,name,alternateName&$top=-1",
                "headers": []
              },
              "template": "{{ item.name }}",
              "key": "group",
              "type": "select",
              "valueProperty": "alternateName",
              "input": true,
              "selectValues": "value",
              "widget": "choicesjs",
              "searchEnabled": true,
              "validate": {
                "required": false
              },
              "lazyLoad": true
            }
          ],
          "width": 6,
          "offset": 0,
          "push": 0,
          "pull": 0
        },
        {
          "components": [
            {
              "label": "Settings.Attributes.archived",
              "labelPosition": "top",
              "widget": "choicesjs",
              "searchEnabled": false,
              "data": {
                "values": [
                  {
                    "label": "Yes",
                    "value": "true"
                  },
                  {
                    "label": "No",
                    "value": "false"
                  }
                ]
              },
              "validate": {
                "required": false
              },
              "dataType": "string",
              "type": "select",
              "key": "archived",
              "input": true,
              "disabled": false,
              "hidden": false
            }
          ],
          "width": 3
        }
      ],
      "tableView": false,
      "type": "columns",
      "input": false
    }
  ]
}