{
  "title": "StudentRequestActionsTypes.RequestPartTimeProgramAction",
  "model": "RequestPartTimeProgramActions",
  "searchExpression": "(indexof(student/person/familyName, '${text}') ge 0 or indexof(student/person/givenName, '${text}') ge 0 or indexof(student/studentIdentifier, '${text}') ge 0)",
  "selectable": false,
  "multipleSelect": false,
  "columns": [
    {
      "name": "id",
      "property": "id",
      "formatter": "ActionLinkFormatter",
      "actions": [
        {
          "title": "Requests.Preview.Label",
          "href": "#/requests/${id}/"
        }
      ]
    },
    {
      "name": "additionalType",
      "property": "additionalType",
      "title": "Requests.AdditionalType",
      "formatter": "TranslationFormatter",
      "formatString": "StudentRequestActionsTypes.${value}"
    },
    {
      "name": "student/studentIdentifier",
      "property": "studentIdentifier",
      "title": "Requests.StudentIdentifier"
    },
    {
      "name": "student/person/familyName",
      "property": "familyName",
      "title": "Requests.FullName",
      "formatter": "TemplateFormatter",
      "formatString": "${familyName} ${givenName}"
    },
    {
      "name": "student/person/givenName",
      "property": "givenName",
      "title": "Requests.GivenName",
      "hidden": true
    },
    {
      "name":"academicYear/alternateName",
      "property": "academicYear",
      "title":"Requests.AcademicYear"
    },
    {
      "name":"academicPeriod/name",
      "property": "period",
      "title":"Requests.AcademicPeriod"
    },
    {
      "name": "startTime",
      "property": "startTime",
      "title": "Requests.StartTime",
      "formatter": "DateTimeFormatter",
      "formatString": "shortDate"
    },
    {
      "name": "partTimeCategory/name",
      "property": "partTimeCategory",
      "title": "Requests.PartTimeCategory"
    }
  ],
  "defaults": {
    "filter": "(student/department eq ${currentDepartment})",
    "orderBy": "dateCreated desc"
  },
  "criteria": [
    {
      "name": "additionalType",
      "filter": "(indexof(additionalType, '${value}') ge 0)",
      "type": "text"
    },
    {
      "name": "studentName",
      "filter": "(indexof(student/person/familyName, '${value}') ge 0 or indexof(student/person/givenName, '${value}') ge 0)",
      "type": "text"
    },
    {
      "name": "studentStatus",
      "filter": "(student/studentStatus/alternateName eq '${value}')",
      "type": "text"
    },
    {
      "name": "studentIdentifier",
      "filter": "(indexof(student/studentIdentifier, '${value}') ge 0)",
      "type": "text"
    },
    {
      "name": "yearId",
      "filter": "(academicYear/id eq '${value}')",
      "type": "text"
    },
    {
      "name": "period",
      "filter": "(academicPeriod/id eq ${value})",
      "type": "text"
    },
    {
      "name": "partTimeCategory",
      "filter": "(partTimeCategory/id eq ${value})",
      "type": "text"
    },
    {
      "name": "actionStatus",
      "filter": "(actionStatus/alternateName eq '${value}')",
      "type": "text"
    },
    {
      "name": "minDate",
      "filter": "(dateCreated ge '${new Date(value).toISOString()}')"
    },
    {
      "name": "maxDate",
      "filter": "(dateCreated le '${new Date(value).toISOString()}')"
    }
  ]
}
