{
  "components": [
    {
      "label": "Columns",
      "columns": [
        {
          "components": [
            {
              "label": "Students.fullName",
              "spellcheck": true,
              "tableView": true,
              "validate": {
                "unique": false,
                "multiple": false
              },
              "key": "studentName",
              "type": "textfield",
              "input": true,
              "hideOnChildrenHidden": false
            }
          ],
          "width": 8,
          "offset": 0,
          "push": 0,
          "pull": 0
        },
        {
          "components": [
            {
              "label": "Students.studentIdentifier",
              "labelPosition": "top",
              "widget": {
                "type": "input"
              },
              "validate": {
                "required": false,
                "min": 0
              },
              "key": "studentIdentifier",
              "type": "number",
              "input": true
            }
          ],
          "width": 4
        }
      ],
      "tableView": false,
      "key": "department",
      "type": "columns",
      "input": false,
      "path": "columns"
    },
    {
      "label": "Columns",
      "columns": [
        {
          "components": [
            {
              "label": "Requests.ActionStatusTitle",
              "widget": "choicesjs",
              "dataSrc": "url",
              "data": {
                "url": "ActionStatusTypes?$orderby=name",
                "headers": []
              },
              "selectThreshold": 0.3,
              "validate": {
                "unique": false,
                "multiple": false
              },
              "template": "{{ item.alternateName }}",
              "key": "actionStatus",
              "valueProperty": "alternateName",
              "selectValues": "value",
              "type": "select",
              "input": true,
              "hideOnChildrenHidden": false,
              "disableLimit": false,
              "lazyLoad": false
            }
          ],
          "width": 4,
          "offset": 0,
          "push": 0,
          "pull": 0
        },
        {
          "components": [
            {
              "label": "Requests.StudentStatus",
              "widget": "choicesjs",
              "dataSrc": "url",
              "data": {
                "url": "StudentStatuses?$orderby=name",
                "headers": []
              },
              "selectThreshold": 0.3,
              "validate": {
                "unique": false,
                "multiple": false
              },
              "template": "{{ item.name }}",
              "key": "studentStatus",
              "valueProperty": "alternateName",
              "selectValues": "value",
              "type": "select",
              "input": true,
              "hideOnChildrenHidden": false,
              "disableLimit": false,
              "lazyLoad": false
            }
          ],
          "width": 4,
          "offset": 0,
          "push": 0,
          "pull": 0
        },
        {
          "components": [
            {
              "label": "Graduations.GraduationValid",
              "widget": "choicesjs",
              "data": {
                "values": [
                  {
                    "label": "No",
                    "value": -1
                  },
                  {
                    "label": "Yes",
                    "value": 1
                  }
                ]
              },
              "selectThreshold": 0.3,
              "validate": {
                "unique": false,
                "multiple": false
              },
              "key": "graduationValid",
              "valueProperty": "value",
              "selectValues": "value",
              "type": "select",
              "input": true,
              "searchEnabled": false,
              "hideOnChildrenHidden": false,
              "disableLimit": false,
              "lazyLoad": false
            }
          ],
          "width": 2,
          "offset": 0,
          "push": 0,
          "pull": 0
        },
        {
          "components": [
            {
              "label": "Graduations.AttachmentValid",
              "widget": "choicesjs",
              "data": {
                "values": [
                  {
                    "label": "No",
                    "value": -1
                  },
                  {
                    "label": "Yes",
                    "value": 1
                  }
                ]
              },
              "selectThreshold": 0.3,
              "validate": {
                "unique": false,
                "multiple": false
              },
              "key": "attachmentValid",
              "valueProperty": "value",
              "selectValues": "value",
              "type": "select",
              "input": true,
              "searchEnabled": false,
              "hideOnChildrenHidden": false,
              "disableLimit": false,
              "lazyLoad": false
            }
          ],
          "width": 2,
          "offset": 0,
          "push": 0,
          "pull": 0
        }
      ],
      "tableView": false,
      "key": "columns1",
      "type": "columns",
      "input": false,
      "path": "columns1"
    }
  ]
}
