{
  "model": "CourseExams",
  "settings": {
    "i18n": {
      "el": {
        "Result date": "Ημερομηνία αποτελεσμάτων",
        "Edit the full date of the announcement of the grades": "Ορίστε την πλήρη ημερομηνία της ανακοίνωσης των βαθμών"

      }
    }
  },
  "components": [
    {
      "type": "fieldset",
      "label": "Transfer student to study program",
      "key": "fieldSet",
       "input": false,

      "components": [
        {
          "columns": [
            {
              "components": [
                {
                  "label": "Result date",
                  "labelPosition": "top",
                  "widget": {
                    "type": "input"
                  },
                  "validate": {
                    "required": true
                  },
                  "key": "resultDate",
                  "enableTime": false,
                  "type": "datetime",
                  "required": "true",
                  "format": "dd/MM/yyyy",
                  "description": "Edit the full date of the announcement of the grades"
                }
              ],
              "width": 5,
              "offset": 0,
              "push": 0,
              "pull": 0
            }
          ],
          "customClass": "text-dark",
          "hideLabel": true,
          "type": "columns",
          "input": false
        }
      ]
    }
  ]
}
