{
  "model": "UpdateProgramGroupActions",
  "settings": {
    "i18n": {
      "el": {
        "Add program group to students": "Προσθήκη ομάδας προγράμματος σπουδών στους φοιτητές",
        "Select the study program group to add it to students": "Επιλέξτε την ομάδα του προγράμματος σπουδών η οποία θα προστεθεί στους φοιτητές"
      }
    }
  },
  "components": [
    {
      "type": "fieldset",
      "key": "fieldSet",
      "input": false,
      "components": [
        {
          "columns": [
            {
              "components": [
                {
                  "label": "Add program group to students",
                  "labelPosition": "top",
                  "widget": "choicesjs",
                  "dataSrc": "url",
                  "customConditional": "show = !!(data.currentProgram);",
                  "data": {
                    "url": "/ProgramGroups?$select=id,name&$filter=program eq {{data.currentProgram}} and groupType/alternateName eq 'simple' and parentGroup ne null&$orderby=name&$top=-1",
                    "headers": []
                  },
                  "validate": {
                    "required": true
                  },
                  "valueProperty": "id",
                  "lazyLoad": false,
                  "dataType": "string",
                  "template": "<span class='d-block pr-5 text-truncate'>{{ item.name }}</span>",
                  "selectThreshold": 0.3,
                  "key": "group",
                  "type": "select",
                  "selectValues": "value",
                  "input": true,
                  "description": "Select the study program group to add it to students"
                }
              ],
              "width": 8
            }
          ],
          "customClass": "text-dark",
          "hideLabel": true,
          "type": "columns",
          "input": false
        }
      ]
    }
  ]
}
