{
  "model": "ScholarshipValidateActions",
  "settings": {
    "i18n": {
      "el": {
        "Select academic year": "Επιλέξτε το ακαδημαϊκό έτος",
        "Select scholarship": "Επιλέξτε υποτροφία",
        "Check scholarship rules for students": "Έλεγχος προϋποθέσεων υποτροφίας",
        "Select scholarship to validate students against its rules": "Επιλέξτε την υποτροφία για την οποία θα γίνει ο έλεγχος προϋποθέσεων για τους επιλεγμένους φοιτητές",
        "Note: After starting the process, you can see the results of the checks by navigating to the scholarship": "Σημείωση: Μετά την έναρξη της διαδικασίας, μπορείτε να δείτε τα αποτελέσματα των ελέγχων μεταβαίνοντας στην υποτροφία"
      }
    }
  },
  "components": [
    {
      "type": "fieldset",
      "key": "fieldSet",
      "input": false,
      "components": [
        {

          "columns": [
            {
              "components": [
                {
                  "label": "Select academic year",
                  "labelPosition": "top",
                  "widget": "choicesjs",
                  "dataSrc": "url",
                  "data": {
                    "url": "/AcademicYears?$select=id,name&$order=id desc",
                    "headers": []
                  },
                  "validate": {
                    "required": true
                  },
                  "valueProperty": "id",
                  "lazyLoad": false,
                  "dataType": "string",
                  "template": "<span class='d-block pr-5 text-truncate'>{{ item.name }}</span>",
                  "selectThreshold": 0.3,
                  "key": "academicYear",
                  "type": "select",
                  "selectValues": "value",
                  "input": true
                }
              ],
              "width": 8
            },
            {
              "components": [
                {
                  "label": "Select scholarship",
                  "labelPosition": "top",
                  "widget": "choicesjs",
                  "dataSrc": "url",
                  "customConditional": "show = !!(data.academicYear && data.department);",
                  "data": {
                    "url": "/Scholarships?$select=id,name&$filter=year eq {{data.academicYear}} and department eq {{data.department}}",
                    "headers": []
                  },
                  "validate": {
                    "required": true
                  },
                  "valueProperty": "id",
                  "refreshOn": "academicYear",
                  "lazyLoad": true,
                  "clearOnRefresh": true,
                  "dataType": "string",
                  "template": "<span class='d-block pr-5 text-truncate'>{{ item.name }}</span>",
                  "selectThreshold": 0.3,
                  "key": "scholarship",
                  "type": "select",
                  "selectValues": "value",
                  "input": true,
                  "description": "Select scholarship to validate students against its rules"
                }
              ],
              "width": 8
            },
            {
              "components": [
                {
                  "label": "HTML",
                  "tag": "div",
                  "className": "pt-2 form-text text-muted",
                  "customConditional": "show = data.scholarship;",
                  "content": "Note: After starting the process, you can see the results of the checks by navigating to the scholarship",
                  "refreshOnChange": false,
                  "tableView": false,
                  "key": "subtitle",
                  "type": "htmlelement",
                  "input": false
                }
              ],
              "width": 12
            }

          ],
          "customClass": "text-dark",
          "hideLabel": true,
          "type": "columns",
          "input": false
        }
      ]
    }
  ]
}
