{
  "model": "DepartmentStudentSeries",
  "settings": {
    "i18n": {
      "el": {
        "Series": "Σειρές φοιτητών",
        "The set of series": "Το σύνολο των σειρών",
        "Evenly distribute per semester": "Ισοκατανομή ανά εξάμηνο",
        "If checked, the distribution will consider the number of students already assigned to each series per semester and not the total for all semesters": "Εάν επιλεγεί, η κατανομή θα λάβει υπόψη τον αριθμό των φοιτητών που έχουν ήδη ανατεθεί σε κάθε σειρά ανά εξάμηνο και όχι το σύνολο από όλα τα εξάμηνα",
        "Ignore existing members": "Αγνόηση υπαρχόντων μελών",
        "If checked, the current members of the series will not be considered, in which case the total number of members of each series may not be balanced after": "Εάν επιλεγεί, η κατανομή δεν θα λάβει υπόψη τα υπάρχοντα μέλη των σειρών, οπότε ο συνολικός αριθμός των μελών κάθε σειράς μπορεί να μην είναι ισορροπημένος στην συνέχεια",
        "Overwrite existing assignments": "Αντικατάσταση αναθέσεων",
        "If checked, existing assignments of series will be overwritten": "Εάν επιλεγεί, οι υπάρχουσες αναθέσεις σειρών θα αντικατασταθούν",
        "Sorting field": "Πεδίο ταξινόμησης",
        "The field that the students will be sorted with": "Το πεδίο βάση του οποίου θα γίνει η ταξινόμηση",
        "Assignment Order": "Σειρά ανάθεσης",
        "The order in which the students will be selected for each series": "Η σειρά με την οποία θα επιλεχθούν οι φοιτητές για κάθε Σειρά",
        "In order (AABBCC)": "Σειριακά (ΑΑΒΒΓΓ)",
        "Round-Robin (ABCABC)": "Εκ περιτροπής (ΑΒΓΑΒΓ)",
        "Student full name": "Ονοματεπώνυμο φοιτητή",
        "Student identifier": "Αριθμός μητρώου φοιτητή"
      }
    }
  },
  "components": [
    {
      "type": "fieldset",
      "key": "fieldSet",
      "input": false,
      "components": [
        {
          "columns": [
            {
              "components": [
                {
                  "label": "Series",
                  "labelPosition": "top",
                  "multiple": true,
                  "widget": "choicesjs",
                  "searchEnabled": true,
                  "dataSrc": "url",
                  "data": {
                    "url": "/DepartmentStudentSeries?$select=id,name&$filter=department eq {{data.department}}&$orderby=name",
                    "headers": []
                  },
                  "valueProperty": "id",
                  "lazyLoad": false,
                  "dataType": "string",
                  "template": "{{ item.name }}",
                  "selectThreshold": 0.3,
                  "key": "series",
                  "type": "select",
                  "selectValues": "value",
                  "input": true,
                  "description": "The set of series"
                }
              ],
              "width": 8
            }
          ],
          "customClass": "text-dark",
          "hideLabel": true,
          "type": "columns",
          "input": false
        },
        {
          "columns": [
            {
              "components": [
                {
                  "label": "Evenly distribute per semester",
                  "description": "If checked, the distribution will consider the number of students already assigned to each series per semester and not the total for all semesters",
                  "tableView": false,
                  "key": "balancePerSemester",
                  "type": "checkbox",
                  "input": true,
                  "defaultValue": true,
                  "labelPosition": "top"
                }
              ],
              "width": 8
            }
          ],
          "customClass": "text-dark",
          "hideLabel": true,
          "type": "columns",
          "input": false
        },
        {
          "columns": [
            {
              "components": [
                {
                  "label": "Ignore existing members",
                  "description": "If checked, the current members of the series will not be considered, in which case the total number of members of each series may not be balanced after",
                  "tableView": false,
                  "key": "ignoreExisting",
                  "type": "checkbox",
                  "input": true,
                  "defaultValue": false,
                  "labelPosition": "top"
                }
              ],
              "width": 8
            }
          ],
          "customClass": "text-dark",
          "hideLabel": true,
          "type": "columns",
          "input": false
        },
        {
          "columns": [
            {
              "components": [
                {
                  "label": "Overwrite existing assignments",
                  "description": "If checked, existing assignments of series will be overwritten",
                  "tableView": false,
                  "key": "overwriteExisting",
                  "type": "checkbox",
                  "input": true,
                  "defaultValue": false,
                  "labelPosition": "top"
                }
              ],
              "width": 8
            }
          ],
          "customClass": "text-dark",
          "hideLabel": true,
          "type": "columns",
          "input": false
        },
        {
          "columns": [
            {
              "components": [
                {
                  "label": "Sorting field",
                  "description_hidden": "The field that the students will be sorted with",
                  "key": "sortingField",
                  "type": "radio",
                  "input": true,
                  "defaultValue": "id",
                  "values": [
                    {
                      "label": "Student full name",
                      "value": "name"
                    },
                    {
                      "label": "Student identifier",
                      "value": "id"
                    }
                  ],
                  "inline": true,
                  "customClass": "mt-1 mb-4"
                }
              ],
              "width": 8
            }
          ],
          "customClass": "text-dark",
          "hideLabel": true,
          "type": "columns",
          "input": false
        },
        {
          "columns": [
            {
              "components": [
                {
                  "label": "Assignment Order",
                  "description_hidden": "The order in which the students will be selected for each series",
                  "key": "assignmentOrder",
                  "type": "radio",
                  "input": true,
                  "defaultValue": "linear",
                  "values": [
                    {
                      "label": "In order (AABBCC)",
                      "value": "linear"
                    },
                    {
                      "label": "Round-Robin (ABCABC)",
                      "value": "mixed"
                    }
                  ],
                  "inline": true,
                  "customClass": "mt-1 mb-4"
                }
              ],
              "width": 8
            }
          ],
          "customClass": "text-dark",
          "hideLabel": true,
          "type": "columns",
          "input": false
        }
      ]
    }
  ]
}
