{
  "model": "Students/Removed",
  "settings": {
    "i18n": {
      "el": {
        "Choose whether student identifiers (such as student department identifier, student institute identifier) will be re-calculated": "Επιλέξτε εάν οι αριθμοί μητρώου των φοιτητών (όπως ΑΕΜ, ΑΠΜ) θα υπολογιστούν εκ νέου κατά την ανάκτηση του φοιτητή ή αν η διαδικασία θα προσπαθήσει να εισάγει το φοιτητή με τους υπάρχοντες",
        "Recalculate student identifiers": "Υπολογισμός εκ νέου των αριθμών μητρώου φοιτητών"
      }
    }
  },
  "components": [
    {
      "type": "fieldset",
      "components": [
        {
          "columns": [
            {
              "components": [
                {
                  "label": "Recalculate student identifiers",
                  "labelPosition": "top",
                  "widget": "choicesjs",
                  "data": {
                    "values": [
                      {
                        "label": "No",
                        "value": "false"
                      },
                      {
                        "label": "Yes",
                        "value": "true"
                      }
                    ]
                  },
                  "validate": {
                    "required": true
                  },
                  "key": "calculateIdentifiers",
                  "searchEnabled": false,
                  "type": "select",
                  "description": "Choose whether student identifiers (such as student department identifier, student institute identifier) will be re-calculated"
                }
              ],
              "width": 8
            }
            ],
          "customClass": "text-dark",
          "hideLabel": true,
          "type": "columns",
          "input": false
        }
      ]
    }
  ],
  "width": 3
}
