{
    "model": "ReportTemplates",
    "title": "Reports.Lists.ReportTemplate.Description",
    "subtitle": "Edit item",
    "settings": {
      "i18n": {
        "el": {
          "Set the name of this template. This name will be visible while selecting reports":"Ορίστε την ονομασία της αναφοράς. Αυτό το όνομα θα είναι ορατό στις λίστες επιλογής.",
          "Set an alternate name for this item. This name will be used to identify items":"Ορίστε μία εναλλακτική ονομασία για αυτό το στοιχείο. Αυτό το όνομα θα χρησιμοποιηθεί για την ταυτοποίηση του στοιχείου",
          "This field must contain only latin characters or numbers e.g. active, closed etc. A value is required.": "Αυτό το πεδίο πρέπει να περιέχει μόνον λατινικούς χαρακτήρες ή αριθμούς πχ. active, closed κτλ. Το πεδίο είναι υποχρεωτικό.",
          "Write a short description for this item": "Γράψτε μία σύντομη περιγραφή για αυτό το στοιχείο",
          "Select the category where this report template belongs": "Επιλέξτε την κατηγορία στην οποία ανήκει η αναφορά",
          "Enable this feature to sign documents during export (for future use)": "Ενεργοποιήστε αυτή την επιλογή για την ψηφιακή υπογραφή των εγγράφων (για μελλοντική χρήση)",
          "Set the url of the server report template": "Ορίστε την ηλεκτρονική διαδρομή του προτύπου αναφοράς του διακομιστή",
          "Enable this feature to generate a document number based on server-side configuration about document numbering": "Ενεργοποιήστε αυτή την επιλογή για την δημιουργία ενός αριθμού εγγράφου σύμφωνα με τις ρυθμίσεις του διακομιστή για την παραγωγή αριθμών εγγράφων",
          "Set the available export formats of the server report template": "Ορίστε τους διαθέσιμους τύπους εξαγωγής του προτύπου αναφοράς.",
          "Available export formats": "Διαθέσιμοι τύποι εξαγωγής",
          "Digital signature participants": "Ρόλοι που συμμετέχουν στη ψηφιακή υπογραφή των πρωτοκολλημένων εγγράφων",
          "Role type": "Ρόλος",
          "Signature index": "Σειρά υπογραφής",
          "Use signature priority": "Χρήση προτεραιότητας (σειράς) κατά τη ψηφιακή υπογραφή από τους συμμετέχοντες ρόλους",
          "Set the roles that will have to digitally sign the produced documents, in order for them to be available for publishing": "Ορίστε (προαιρετικά) τους ρόλους που θα πρέπει να υπογράψουν ψηφιακά τα παραγόμενα πρωτοκολλημένα έγγραφα, ώστε αυτά να θεωρηθούν διαθέσιμα προς δημοσίευση. Για τη συσχέτιση με φυσικό πρόσωπο, θα χρησιμοποιηθούν οι ρόλοι που έχουν οριστεί στο εκάστοτε Τμήμα"
        }
      }
    },
    "components": [
      {
        "type": "fieldset",
        "components": [
          {
            "label": "HTML",
            "tag": "h5",
            "className": "font-weight-normal",
            "content": "{{instance.t(form.subtitle)}}",
            "refreshOnChange": false,
            "tableView": false,
            "key": "subtitle",
            "type": "htmlelement",
            "input": false
          },
          {
            "columns": [
              {
                "components": [
                  {
                    "label": "Name",
                    "labelPosition": "top",
                    "widget": {
                      "type": "input"
                    },
                    "validate": {
                      "required": true
                    },
                    "key": "name",
                    "type": "textfield",
                    "input": true,
                    "disabled": false,
                    "description": "Set the name of this template. This name will be visible while selecting reports"
                  }
                ],
                "width": 6
              },
              {
                "components": [
                  {
                    "label": "AlternateName",
                    "labelPosition": "top",
                    "widget": {
                      "type": "input"
                    },
                    "validate": {
                      "required": true,
                      "pattern": "^[a-zA-Z0-9_+-]+$",
                      "customMessage": "This field must contain only latin characters or numbers e.g. active, closed etc. A value is required."
                    },
                    "key": "alternateName",
                    "type": "textfield",
                    "input": true,
                    "description": "Set an alternate name for this item. This name will be used to identify items"
                  }
                ],
                "width": 6
              },
              {
                "components": [
                  {
                    "label": "Description",
                    "labelPosition": "top",
                    "widget": {
                      "type": "input"
                    },
                    "validate": {
                      "required": false
                    },
                    "key": "description",
                    "type": "textarea",
                    "input": true,
                    "description": "Write a short description for this item"
                  }
                ],
                "width": 12
              },
              {
                "components": [
                  {
                    "label": "Enable digital signing",
                    "defaultValue": false,
                    "validate": {
                        "unique": false,
                        "multiple": false
                    },
                    "key": "signReport",
                    "type": "checkbox",
                    "input": true,
                    "description": "Enable this feature to sign documents during export (for future use)"
                  }
                ],
                "width": 6
              },
              {
                "components": [
                  {
                    "label": "Report category",
                    "labelPosition": "top",
                    "widget": "choicesjs",
                    "searchEnabled": true,
                    "template": "{{ item.name }}",
                    "type": "select",
                    "input": true,
                    "dataSrc": "url",
                    "data": {
                      "url": "ReportCategories/?$select=id,name",
                      "headers": []
                    },
                    "key": "reportCategory",
                    "valueProperty": "id",
                    "lazyLoad": false,
                    "selectValues": "value",
                    "validate": {
                      "required": true
                    },
                    "description": "Select the category where this report template belongs"
                  }
                ],
                "width": 6
              },
              {
                "components": [
                  {
                    "label": "Use document number",
                    "defaultValue": false,
                    "validate": {
                        "unique": false,
                        "multiple": false
                    },
                    "key": "useDocumentNumber",
                    "type": "checkbox",
                    "input": true,
                    "description": "Enable this feature to generate a document number based on server-side configuration about document numbering"
                  }
                ],
                "width": 6
              },
              {
                "components": [
                  {
                    "label": "Url",
                    "labelPosition": "top",
                    "widget": "choicesjs",
                    "searchEnabled": true,
                    "template": "{{ item.label }} ({{ item.uri }})",
                    "type": "select",
                    "input": true,
                    "dataSrc": "url",
                    "data": {
                      "url": "ReportTemplates/availableServerTemplates",
                      "headers": []
                    },
                    "key": "url",
                    "valueProperty": "uri",
                    "lazyLoad": false,
                    "validate": {
                      "required": false
                    },
                    "description": "Set the url of the server report template"
                  }
                ],
                "width": 6
              },
              {
                "components": [
                  {
                    "label": "Use signature priority",
                    "defaultValue": false,
                    "validate": {
                        "unique": false,
                        "multiple": false
                    },
                    "key": "useSignaturePriority",
                    "customConditional": "show = (data && data.signReport === true)",
                    "type": "checkbox",
                    "input": true
                  }
                ],
                "width": 6
              },
              {
                "components": [
                  {
                    "label": "Available export formats",
                    "labelPosition": "top",
                    "multiple": true,
                    "widget": "choicesjs",
                    "searchEnabled": true,
                    "template": "{{ item.name }}",
                    "type": "select",
                    "input": true,
                    "dataSrc": "url",
                    "data": {
                      "url": "MediaTypes?$select=id,name,alternateName",
                      "headers": []
                    },
                    "selectValues": "value",
                    "key": "exportFormats",
                    "dataType": "object",
                    "lazyLoad": true,
                    "validate": {
                      "required": false
                    },
                    "description": "Set the available export formats of the server report template"
                  }
                ],
                "width": 6
              },
              {
                "components": [
                  {
                    "label": "Digital signature participants",
                    "customClass": "border-0",
                    "reorder": false,
                    "addAnotherPosition": "bottom",
                    "defaultOpen": false,
                    "layoutFixed": false,
                    "enableRowGroups": false,
                    "initEmpty": true,
                    "tableView": false,
                    "addAnother": "AddItem",
                    "key": "signRoles",
                    "type": "datagrid",
                    "input": true,
                    "description": "Set the roles that will have to digitally sign the produced documents, in order for them to be available for publishing",
                    "customConditional": "show = (data && data.signReport === true)",
                    "components": [
                      {
                        "label": "Role type",
                        "labelPosition": "top",
                        "dataSrc": "url",
                        "data": {
                          "url": "RoleTypes?$top=-1&$select=id,name",
                          "headers": []
                        },
                        "searchFields": [
                          "id",
                          "name"
                        ],
                        "template": "{{ item.name }}",
                        "selectValues": "value",
                        "key": "roleType",
                        "type": "select",
                        "lazyLoad": false,
                        "input": true,
                        "validate": {
                          "required": true
                        }
                      },
                      {
                        "label": "Signature index",
                        "tableView": true,
                        "key": "index",
                        "type": "number",
                        "integer": true,
                        "input": true,
                        "hideOnChildrenHidden": true,
                        "clearOnHide": true,
                        "redrawOn": "useSignaturePriority",
                        "customConditional": "show = (data && data.useSignaturePriority === true)"
                      }
                    ]
                  }
                ],
                "size": "md",
                "width": 12,
                "offset": 0,
                "push": 0,
                "pull": 0
              }
            ],
            "customClass": "text-dark",
            "hideLabel": true,
            "type": "columns",
            "input": false
          }
        ]
      },
      {
        "type": "button",
        "label": "Submit",
        "key": "submit",
        "disableOnInvalid": true,
        "input": true
      }
    ]
  }
  