{
  "model": "RequestPartTimeProgramActions",
  "title": "Part time",
  "settings": {
    "i18n": {
      "el": {
        "Request for part time studies": "Αίτηση ένταξης σε πρόγραμμα μερικής φοίτησης",
        "Period": "Περίοδος",
        "Number of periods" : "Αριθμός περιόδων",
        "Student comments": "Σχόλια φοιτητή/ριας",
        "Part time category": "Κατηγορία μερικής φοίτησης",
        "Part time study program": "Πρόγραμμα σπουδών μερικής φοίτησης"
      }
    }
  },
  "components": [
  {
    "type": "fieldset",
    "components": [
      {
        "columns": [
          {
            "components": [
              {
                "label": "HTML",
                "tag": "h5",
                "className": "font-weight-bold",
                "content": "{{instance.i18next.translator.translate('Request for part time studies')}}",
                "refreshOnChange": false,
                "tableView": false,
                "key": "subtitle",
                "type": "htmlelement",
                "input": false
              }
            ],
            "width": 12
          },
          {
            "components": [
              {
                "label": "Academic Year",
                "customConditional": "show = !!data.academicYear;",
                "labelPosition": "top",
                "key": "academicYear.alternateName",
                "type": "select",
                "searchEnabled": true,
                "dataSrc": "url",
                "data": {
                  "url": "AcademicYears?$top={{limit}}&$skip={{skip}}&$orderby=id desc",
                  "headers": []
                },
                "limit": 20,
                "template": "{{ item.alternateName }}",
                "input": true,
                "lazyLoad": true,
                "selectValues": "value",
                "disabled": true,
                "widget": "choicesjs"

              }
            ],
            "width": 3
          },
          {
            "components": [
              {
                "label": "Period",
                "customConditional": "show = !!data.academicPeriod;",
                "labelPosition": "top",
                "widget": "choicesjs",
                "dataSrc": "url",
                "data": {
                  "url": "AcademicPeriods",
                  "headers": []
                },
                "template": "{{ item.name }}",
                "selectValues": "value",
                "key": "academicPeriod.name",
                "type": "select",
                "input": true,
                "disabled": true,
                "searchEnabled": false

              }
            ],
            "width": 3
          },
          {
            "components": [
              {
                "label": "Number of periods",
                "key": "periods",
                "labelPosition": "top",
                "input": true,
                "type": "number",
                "disabled": true
              }
            ],
            "width": 3,
            "offset": 0,
            "push": 0,
            "pull": 0
          },
          {
            "components": [
              {
                "label": "Part time category",
                "key": "partTimeCategory.name",
                "labelPosition": "top",
                "input": true,
                "type": "textfield",
                "disabled": true
              }
            ],
            "width": 3,
            "offset": 0,
            "push": 0,
            "pull": 0
          },
          {
            "components": [
              {
                "label": "Part time study program",
                "key": "partTimeStudyProgram.name",
                "labelPosition": "top",
                "input": true,
                "type": "textfield",
                "disabled": true
              }
            ],
            "width": 6,
            "offset": 0,
            "push": 0,
            "pull": 0
          },
          {
            "components": [
              {
                "label": "Student comments",
                "widget": "choicesjs",
                "selectThreshold": 0.3,
                "validate": {
                  "unique": false,
                  "multiple": false
                },
                "key": "description",
                "type": "textarea",
                "input": true,
                "disabled": true
              }
            ],
            "width": 12,
            "offset": 0,
            "push": 0,
            "pull": 0
          }
        ],
        "customClass": "text-dark",
        "hideLabel": true,
        "type": "columns",
        "input": false
      }
    ]
  }
],
  "width": 3
}
