{
    "model": "StudentTheses",
    "title": "Theses.DateCompletedEdit",
    "settings": {
        "i18n": {
            "el": {
                "Date Completed": "Ημερομηνία Αναγνώρισης",
                "The date of completion cannot be earlier than the start date of the thesis.": "Η ημερομηνία ολοκλήρωσης δεν μπορεί να είναι προγενέστερη απο την ημερομηνία έναρξης της εργασίας",
                "<span>This date will be taken into account when calculating the date of the student's last obligation.</span>": "<span>Η συγκεκριμένη ημερομηνία θα ληφθεί υπόψιν κατά τον υπολογισμό της ημερομηνίας της τελευταίας υποχρέωσης του φοιτητή.</span>"
            }
        }
    },
    "components": [
        {
            "columns": [
                {
                    "components": [
                        {
                            "label": "Date Completed",
                            "labelPosition": "top",
                            "spellcheck": true,
                            "enableTime": false,
                            "customOptions": {
                                "dateFormat": "yyyy-MM-dd",
                                "allowInput": true
                            },
                            "widget": {
                                "type": "calendar"
                            },
                            "validate": {
                                "custom": "const endDate = data.dateCompleted, startDate = data.thesis.startDate; valid = endDate && startDate? new Date(endDate).getTime() - new Date(startDate).setUTCHours(0, 0, 0, 0) >= 0 : true;"
                            },
                            "errors": {
                                "custom": "The date of completion cannot be earlier than the start date of the thesis."
                            },
                            "key": "dateCompleted",
                            "type": "datetime",
                            "format": "dd/MM/yyyy",
                            "input": true,
                            "defaultValue": null
                        }
                    ],
                    "width": 8
                }
            ],
            "hideLabel": true,
            "type": "columns",
            "input": false
        },
        {
            "html": "<span>This date will be taken into account when calculating the date of the student's last obligation.</span>",
			"type": "content",
			"input": false,
            "customClass": "text-secondary"
        },
        {
            "type": "button",
            "label": "Submit",
            "key": "submit",
            "disableOnInvalid": true,
            "input": true
        }
    ]
}