{
    "model": "ConsentFieldGroups",
    "selectable": true,
    "columns": [
        {
            "name": "id",
            "formatter": "ButtonFormatter",
            "className": "text-center",
            "formatOptions": {
                "buttonContent": "<i class=\"far fa-eye text-indigo\"></i>",
                "buttonClass": "btn btn-default",
                "commands": [
                    "${id}",
                    "overview"
                ]
            }
        },
        {
            "name": "name",
            "title": "Settings.Attributes.name",
            "hidden": false
        },
        {
            "name": "alternateName",
            "title": "Settings.Attributes.alternateName",
            "hidden": false,
            "formatter": "TemplateFormatter",
            "formatString": "<span class=\"badge p-2 badge-gray-200\">${alternateName}</span>"
        },
        {
            "name": "description",
            "title": "Settings.Attributes.description",
            "hidden": false
        },
        {
            "name": "archived",
            "title": "Settings.Attributes.archived",
            "hidden": false,
            "formatter": "TrueFalseFormatter"
        },
        {
            "name": "dateCreated",
            "title": "Settings.Attributes.dateCreated",
            "hidden": false,
            "formatter": "DateTimeFormatter",
            "formatString": "medium"
        },
        {
            "name": "dateModified",
            "title": "Settings.Attributes.dateModified",
            "hidden": false,
            "formatter": "DateTimeFormatter",
            "formatString": "medium"
        }
    ]
}
