{
    "components": [
        {
            "type": "fieldset",
            "legend": "Personal Information",
            "components": [
                {
                    "label": "Columns",
                    "columns": [
                        {
                            "components": [
                                {
                                    "label": "First Name",
                                    "disabled": true,
                                    "key": "firstNameEn",
                                    "type": "textfield",
                                    "input": true
                                }
                            ],
                            "width": 6
                        },
                        {
                            "components": [
                                {
                                    "label": "Last Name",
                                    "disabled": true,
                                    "key": "lastNameEn",
                                    "type": "textfield",
                                    "input": true
                                }
                            ],
                            "width": 6
                        },
                        {
                            "components": [
                                {
                                    "label": "Father Name",
                                    "disabled": true,
                                    "key": "fatherNameEn",
                                    "type": "textfield",
                                    "input": true
                                }
                            ],
                            "width": 6
                        },
                        {
                            "components": [
                                {
                                    "label": "Mother Name",
                                    "disabled": true,
                                    "key": "motherNameEn",
                                    "type": "textfield",
                                    "input": true
                                }
                            ],
                            "width": 6
                        },
                        {
                            "components": [
                                {
                                    "label": "Birth Date",
                                    "disabled": true,
                                    "key": "birthDate",
                                    "type": "textfield",
                                    "input": true
                                }
                            ],
                            "width": 4
                        },
                        {
                            "components": [
                                {
                                    "label": "Birth Place",
                                    "disabled": true,
                                    "key": "birthPlaceEn",
                                    "type": "textfield",
                                    "input": true
                                }
                            ],
                            "width": 4
                        },
                        {
                            "components": [
                                {
                                    "label": "Social Security Number",
                                    "disabled": true,
                                    "key": "ssn",
                                    "type": "textfield",
                                    "input": true
                                }
                            ],
                            "width": 4
                        },
                        {
                            "components": [
                                {
                                    "label": "Tax Number",
                                    "disabled": true,
                                    "key": "taxId",
                                    "type": "textfield",
                                    "input": true
                                }
                            ],
                            "width": 4
                        }
                    ],
                    "type": "columns"
                }
            ]
        },
        {
            "type": "fieldset",
            "legend": "Degree Information",
            "components": [
                {
                    "label": "Columns",
                    "columns": [
                        {
                            "components": [
                                {
                                    "label": "Institution",
                                    "disabled": true,
                                    "key": "institutionEn",
                                    "type": "textfield",
                                    "input": true
                                }
                            ],
                            "width": 6
                        },
                        {
                            "components": [
                                {
                                    "label": "Faculty",
                                    "disabled": true,
                                    "key": "schoolEn",
                                    "type": "textfield",
                                    "input": true
                                }
                            ],
                            "width": 6
                        },
                        {
                            "components": [
                                {
                                    "label": "Department",
                                    "disabled": true,
                                    "key": "departmentEn",
                                    "type": "textfield",
                                    "input": true
                                }
                            ],
                            "width": 6
                        },
                        {
                            "components": [
                                {
                                    "label": "Degree Title",
                                    "disabled": true,
                                    "key": "degreeTitleEn",
                                    "type": "textfield",
                                    "input": true
                                }
                            ],
                            "width": 6
                        },
                        {
                            "components": [
                                {
                                    "label": "Degree Level",
                                    "disabled": true,
                                    "key": "degreeLevelEn",
                                    "type": "textfield",
                                    "input": true
                                }
                            ],
                            "width": 4
                        },
                        {
                            "components": [
                                {
                                    "label": "Specialization",
                                    "disabled": true,
                                    "key": "orientationEn",
                                    "type": "textfield",
                                    "input": true
                                }
                            ],
                            "width": 6
                        },
                        {
                            "components": [
                                {
                                    "label": "Grade",
                                    "disabled": true,
                                    "key": "gradeEn",
                                    "type": "textfield",
                                    "input": true
                                }
                            ],
                            "width": 4
                        },
                        {
                            "components": [
                                {
                                    "label": "Grade Description",
                                    "disabled": true,
                                    "key": "gradeTextEn",
                                    "type": "textfield",
                                    "input": true
                                }
                            ],
                            "width": 4
                        },
                        {
                            "components": [
                                {
                                    "label": "Grade Scale",
                                    "disabled": true,
                                    "key": "gradingScaleEn",
                                    "type": "textfield",
                                    "input": true
                                }
                            ],
                            "width": 4
                        },
                        {
                            "components": [
                                {
                                    "label": "Last Obligation At",
                                    "disabled": true,
                                    "key": "lastObligationDate",
                                    "type": "textfield",
                                    "input": true
                                }
                            ],
                            "width": 4
                        },
                        {
                            "components": [
                                {
                                    "label": "Graduated At",
                                    "disabled": true,
                                    "key": "graduationOathDate",
                                    "type": "textfield",
                                    "input": true
                                }
                            ],
                            "width": 4
                        }
                    ],
                    "type": "columns"
                }
            ]
        },
        {
            "type": "fieldset",
            "legend": "Availability Information",
            "components": [
                {
                    "components": [
                        {
                            "label": "Available since",
                            "disabled": true,
                            "key": "data_available_since",
                            "type": "textfield",
                            "input": true
                        }
                    ],
                    "width": 4
                },
                {
                    "components": [
                        {
                            "label": "Information about data availabilty",
                            "autoExpand": false,
                            "attributes": {
                                "style": "height: 80px"
                              },
                            "disabled": true,
                            "key": "data_availability_info",
                            "type": "textarea",
                            "input": true,
                            "rows": 4
                        }
                    ],
                    "width": 12
                }
            ]
        }
    ]
}